{
    "KPlugin": {
        "Authors": [
            {
                "Email": "espidev@gmail.com",
                "Name": "Devin Lin",
                "Name[ar]": "ديفين لين",
                "Name[az]": "Devin Lin",
                "Name[ca@valencia]": "Devin Lin",
                "Name[ca]": "Devin Lin",
                "Name[cs]": "Devin Lin",
                "Name[de]": "Devin Lin",
                "Name[en_GB]": "Devin Lin",
                "Name[eo]": "Devin Lin",
                "Name[es]": "Devin Lin",
                "Name[eu]": "Devin Lin",
                "Name[fi]": "Devin Lin",
                "Name[fr]": "Devin Lin",
                "Name[gl]": "Devin Lin",
                "Name[he]": "דווין לין",
                "Name[hu]": "Devin Lin",
                "Name[ia]": "Devin Lin",
                "Name[is]": "Devin Lin",
                "Name[it]": "Devin Lin",
                "Name[ka]": "Devin Lin",
                "Name[ko]": "Devin Lin",
                "Name[lv]": "Devin Lin",
                "Name[nl]": "Devin Lin",
                "Name[nn]": "Devin Lin",
                "Name[pa]": "ਡੇਵਿਨ ਲਿਨ",
                "Name[pl]": "Devin Lin",
                "Name[pt]": "Devin Lin",
                "Name[pt_BR]": "Devin Lin",
                "Name[ru]": "Devin Lin",
                "Name[sk]": "Devin Lin",
                "Name[sl]": "Devin Lin",
                "Name[sv]": "Devin Lin",
                "Name[tr]": "Devin Lin",
                "Name[uk]": "Devin Lin",
                "Name[x-test]": "xxDevin Linxx",
                "Name[zh_CN]": "Devin Lin",
                "Name[zh_TW]": "Devin Lin"
            }
        ],
        "Category": "System Information",
        "Description": "Configure the system shell",
        "Description[az]": "Sistem üz qabığını tənzimləyin",
        "Description[ca@valencia]": "Configura l'intèrpret d'ordres del sistema",
        "Description[ca]": "Configura l'intèrpret d'ordres del sistema",
        "Description[en_GB]": "Configure the system shell",
        "Description[eo]": "Agordi la sisteman ŝelon",
        "Description[es]": "Configurar el intérprete de órdenes del sistema",
        "Description[eu]": "Konfiguratu sistemaren oskola",
        "Description[fi]": "Aseta järjestelmän komentotulkki",
        "Description[fr]": "Configurer le shell du système",
        "Description[gl]": "Configurar o intérprete de ordes do sistema.",
        "Description[he]": "הגדרת מעטפת המערכת",
        "Description[hu]": "A rendszerfelület beállítása",
        "Description[ia]": "Configura le shell de systema",
        "Description[is]": "Grunnstilla kerfisskelina",
        "Description[it]": "Configura la shell di sistema",
        "Description[ka]": "სისტემური გარსის მორგება",
        "Description[ko]": "시스템 셸 설정",
        "Description[lv]": "Konfigurēt sistēmas čaulu",
        "Description[nl]": "De systeem-shell configureren",
        "Description[nn]": "Set opp systemskalet",
        "Description[pa]": "ਸਿਸਟਮ ਸ਼ੈੱਲ ਦੀ ਸੰਰਚਨਾ",
        "Description[pl]": "Ustawienia powłoki systemowej",
        "Description[pt]": "Configurar a consola do sistema",
        "Description[pt_BR]": "Configurar o shell do sistema",
        "Description[ru]": "Настройка системной оболочки",
        "Description[sk]": "Konfigurácia pre systémový shell",
        "Description[sl]": "Konfiguriraj sistemski shell",
        "Description[sv]": "Anpassa systemskalet",
        "Description[tr]": "Sistem kabuğunu yapılandır",
        "Description[uk]": "Налаштувати командну оболонку системи",
        "Description[x-test]": "xxConfigure the system shellxx",
        "Description[zh_CN]": "配置系统外壳程序",
        "Description[zh_TW]": "設定系統殼層介面",
        "EnabledByDefault": true,
        "FormFactors": [
            "desktop",
            "handset",
            "tablet",
            "mediacenter"
        ],
        "Icon": "preferences-desktop-plasma",
        "License": "GPL",
        "Name": "Shell",
        "Name[ar]": "الصدَفة",
        "Name[ast]": "Shell",
        "Name[az]": "Örtük",
        "Name[ca@valencia]": "Intèrpret d'ordres",
        "Name[ca]": "Intèrpret d'ordres",
        "Name[cs]": "Shell",
        "Name[de]": "Shell",
        "Name[en_GB]": "Shell",
        "Name[eo]": "Ŝelo",
        "Name[es]": "Intérprete de órdenes",
        "Name[eu]": "Oskola",
        "Name[fi]": "Komentotulkki",
        "Name[fr]": "Shell",
        "Name[gl]": "Intérprete de ordes",
        "Name[he]": "מעטפת",
        "Name[hi]": "शेल",
        "Name[hu]": "Felület",
        "Name[ia]": "Shell",
        "Name[is]": "Skel",
        "Name[it]": "Shell",
        "Name[ka]": "გარსი",
        "Name[ko]": "셸",
        "Name[lv]": "Čaula",
        "Name[nl]": "Shell",
        "Name[nn]": "Skal",
        "Name[pa]": "ਸ਼ੈੱਲ",
        "Name[pl]": "Powłoka",
        "Name[pt]": "Consola",
        "Name[pt_BR]": "Shell",
        "Name[ro]": "Interpretor",
        "Name[ru]": "Оболочка",
        "Name[sk]": "Shell",
        "Name[sl]": "Shell",
        "Name[sv]": "Skal",
        "Name[ta]": "முனையம்",
        "Name[tr]": "Kabuk",
        "Name[uk]": "Оболонка",
        "Name[x-test]": "xxShellxx",
        "Name[zh_CN]": "外壳程序",
        "Name[zh_TW]": "殼層",
        "Website": "https://plasma-mobile.org/"
    },
    "X-KDE-Keywords": "system,shell,panel",
    "X-KDE-Keywords[az]": "sistem,örtük,panel",
    "X-KDE-Keywords[ca@valencia]": "sistema,intèrpret d'ordres,quadro",
    "X-KDE-Keywords[ca]": "sistema,intèrpret d'ordres,plafó",
    "X-KDE-Keywords[en_GB]": "system,shell,panel",
    "X-KDE-Keywords[es]": "sistema,intérprete,intérprete de órdenes,panel",
    "X-KDE-Keywords[eu]": "sistema,shell,oskola,panela",
    "X-KDE-Keywords[fi]": "järjestelmä,komentotulkki,paneeli",
    "X-KDE-Keywords[fr]": "système, shell, panneau",
    "X-KDE-Keywords[hi]": "तंत्र,शैल,पैनल",
    "X-KDE-Keywords[hu]": "rendszer,felület,panel",
    "X-KDE-Keywords[ia]": "system,systema,shell,pannello",
    "X-KDE-Keywords[it]": "sistema,shell,pannello",
    "X-KDE-Keywords[ka]": "system,shell,panel",
    "X-KDE-Keywords[ko]": "system,shell,panel,시스템,셸,패널",
    "X-KDE-Keywords[nl]": "systeem,shell,paneel",
    "X-KDE-Keywords[nn]": "system,skal,shell,panel",
    "X-KDE-Keywords[pa]": "ਸਿਸਟਮ,ਸ਼ੈੱਲ,ਪੈਨਲ",
    "X-KDE-Keywords[pl]": "system,powłoka,panel",
    "X-KDE-Keywords[pt]": "sistema,consola,painel",
    "X-KDE-Keywords[pt_BR]": "sistema,shell,painel",
    "X-KDE-Keywords[ro]": "sistem,interpretor,panou",
    "X-KDE-Keywords[sk]": "systém,shell,panel",
    "X-KDE-Keywords[sl]": "sistem,shell,kontrolna plošča",
    "X-KDE-Keywords[sv]": "system,skal,panel",
    "X-KDE-Keywords[tr]": "sistem,kabuk,panel",
    "X-KDE-Keywords[uk]": "system,shell,panel,система,оболонка,панель",
    "X-KDE-Keywords[x-test]": "xxsystemxx,xxshellxx,xxpanelxx",
    "X-KDE-Keywords[zh_CN]": "system,shell,panel,系统,外壳,系统外壳,外壳程序,系统外壳程序,面板,",
    "X-KDE-System-Settings-Parent-Category": "personalization"
}
